Lab5/waveform.vcd
$date
  Mon Jun 22 17:59:09 2026
$end
$version
  GHDL v0
$end
$timescale
  1 fs
$end
$scope module standard $end
$upscope $end
$scope module std_logic_1164 $end
$upscope $end
$scope module numeric_std $end
$upscope $end
$scope module comparator_2bitt_tb $end
$var reg 2 ! a_tb[1:0] $end
$var reg 2 " b_tb[1:0] $end
$var reg 1 # greater_tb $end
$var reg 1 $ equal_tb $end
$var reg 1 % less_tb $end
$scope module uut $end
$var reg 2 & a[1:0] $end
$var reg 2 ' b[1:0] $end
$var reg 1 ( greater $end
$var reg 1 ) equal $end
$var reg 1 * less $end
$upscope $end
$upscope $end
$enddefinitions $end
#0
b00 !
b00 "
0#
1$
0%
b00 &
b00 '
0(
1)
0*
#10000000
b01 "
0$
1%
b01 '
0)
1*
#20000000
b10 "
b10 '
#30000000
b11 "
b11 '
#40000000
b01 !
b00 "
1#
0%
b01 &
b00 '
1(
0*
#50000000
b01 "
0#
1$
b01 '
0(
1)
#60000000
b10 "
0$
1%
b10 '
0)
1*
#70000000
b11 "
b11 '
#80000000
b10 !
b00 "
1#
0%
b10 &
b00 '
1(
0*
#90000000
b01 "
b01 '
#100000000
b10 "
0#
1$
b10 '
0(
1)
#110000000
b11 "
0$
1%
b11 '
0)
1*
#120000000
b11 !
b00 "
1#
0%
b11 &
b00 '
1(
0*
#130000000
b01 "
b01 '
#140000000
b10 "
b10 '
#150000000
b11 "
0#
1$
b11 '
0(
1)
